…
``` r
# \donttest{
data("example_1", package = "xsdm")
bio1_ts  <- terra::unwrap(example_1$bio01) / 100
bio12_ts <- terra::unwrap(example_1$bio12) / 100
env_data <- list(bio1 = bio1_ts, bio12 = bio12_ts)

vsp(
  param_list    = example_1$par_list,
  env_data      = env_data,
  size_presence = 100,
  size_absence  = 100,
  threshold     = 0.7
)
#> # A tibble: 200 × 3
#>         lon      lat presence
#>       <dbl>    <dbl>    <int>
#>  1  -873723 1417222.        1
#>  2 -1083723 1427222.        1
#>  3 -1113723 1392222.        1
#>  4 -1083723 1252222.        0
#>  5 -1138723 1397222.        1
#>  6  -748723 1627222.        0
#>  7  -758723 1552222.        1
#>  8  -853723 1532222.        1
#>  9 -1158723 1287222.        1
#> 10  -793723 1532222.        1
#> # ℹ 190 more rows
…
